1 10 20
100 200 125
201 210 89
900 1000 174
3523 9034 262
3423 5803 238
2340 5300 238
4500 5000 210
1450 1600 172
1200 1300 177
3405 3209 181
4560 4899 197
2383 8503 262
2422 4431 238
9999 10000 92
1 55 113
190 199 120
230 250 128
250 350 144
9783 9999 242
3578 3595 150
3542 3552 88
2456 8734 262
3582 9445 262
5394 6489 262
2450 5303 238
8000 9000 247
5433 8545 262
213 241 128
365 478 134
1201 1210 71
450 750 171
3000 4000 238
459 600 142
677 749 171
244 256 110
1253 5383 238
5437 9470 262
1240 5083 238
3508 5750 238
2450 3504 217
1230 1244 133
1003 1500 182
209 988 179
700 800 171
301 310 87
123 546 144
132 164 117
567 600 119
146 311 128
11 90 116
2 843 171
15 2 20
43 65 113
46 15 112
64 90 116
10 50 112
98 874 179
1 2 2
15 46 112
30 84 116
65 98 119
43 58 113
16 84 116
9871 8134 260
216 8422 262
9873 51 262
546 15 144
900 84 179
100 5000 238
888 1000 174
19 460 144
51 310 128
67 844 171
1 954 179
1 500 144
52 421 144
81 444 144
48 26 112
22 88 116
11 99 119
64 887 179
12 51 112
635 800 171
49 514 144
32 888 179
12 487 144
614 898 179
84 716 171
60 648 144
100 254 128
4 5711 238
15 61 113
20 324 131
89 841 171
4 658 145
6 51 112
1 2587 209
21 84 116
842 1651 182
16 3055 217
33 333 144
2 10 20
1 5 8
63 84 116
90 888 179
1 1000 179
889 7000 262
999 999999 525
1 999 179
9 999 179
64 999 179
71 123 119
84 164 122
1 89 116
2 64 113
56 875 179
94 841 171
166 500 144
16 920 179
888 16 179
30 9 112
66 90 116
60 78 116
19 26 24
61 200 125
100 200 125
26 15 24
